{
  "kind": "collectionType",
  "collectionName": "mahasiswas",
  "info": {
    "singularName": "mahasiswa",
    "pluralName": "mahasiswas",
    "displayName": "mahasiswa"
  },
  "options": {
    "draftAndPublish": true
  },
  "pluginOptions": {},
  "attributes": {
    "name": {
      "type": "string"
    },
    "email": {
      "type": "email"
    }
  }
}
